<?xml version="1.0" standalone="no"?>
<!DOCTYPE svg PUBLIC "-//W3C//DTD SVG 1.1//EN" "http://www.w3.org/Graphics/SVG/1.1/DTD/svg11.dtd">
<!--Generator: Xara Designer (www.xara.com), SVG filter version: 6.1.0.16-->
<svg stroke-width="0.501" stroke-linejoin="bevel" fill-rule="evenodd" xmlns:xlink="http://www.w3.org/1999/xlink" xmlns="http://www.w3.org/2000/svg" version="1.1" overflow="visible" width="960pt" height="1500pt" viewBox="0 0 960 1500">
 <defs>
	</defs>
 <g id="Document" fill="none" stroke="black" font-family="Times New Roman" font-size="16" transform="scale(1 -1)">
  <g id="Spread" transform="translate(0 -1500)">
   <g id="Layer 1">
    <path d="M 685.376,720.683 L 685.376,779.317 C 685.376,787.311 682.487,794.169 676.661,799.997 C 670.833,805.772 663.974,808.712 656.084,808.712 L 303.968,808.712 C 296.026,808.712 289.167,805.772 283.339,799.997 C 277.513,794.169 274.624,787.311 274.624,779.317 L 274.624,720.683 C 274.624,712.689 277.513,705.831 283.339,700.055 C 289.167,694.228 296.026,691.34 303.968,691.34 L 656.084,691.34 C 663.974,691.34 670.833,694.228 676.661,700.055 C 682.487,705.831 685.376,712.689 685.376,720.683 Z M 784.853,926.754 C 816.311,872.813 832.091,813.869 832.091,750.026 C 832.091,686.131 816.311,627.187 784.853,573.246 C 753.448,519.303 710.697,476.604 656.754,445.095 C 602.813,413.638 543.869,397.909 480.026,397.909 C 416.131,397.909 357.187,413.638 303.246,445.095 C 249.303,476.604 206.604,519.303 175.095,573.246 C 143.638,627.187 127.909,686.131 127.909,750.026 C 127.909,813.869 143.638,872.813 175.095,926.754 C 206.604,980.697 249.303,1023.34 303.246,1054.85 C 357.187,1086.31 416.131,1102.09 480.026,1102.09 C 543.869,1102.09 602.813,1086.31 656.754,1054.85 C 710.697,1023.34 753.448,980.697 784.853,926.754 Z" fill="#444444" stroke="none" stroke-width="22.02" fill-rule="nonzero" stroke-linejoin="round" stroke-linecap="round" marker-start="none" marker-end="none" stroke-miterlimit="79.8403193612775"/>
   </g>
   <g id="Layer_1"/>
  </g>
 </g>
</svg>
